{
  "current_page": 1,
  "data": [
    {
      "id": 1,
      "title": "غزل شمارهٔ ۱",
      "tafsir_audio": "https://api.hafezname.ir/voices/001.mp3",
      "tafsir": "مشکلات تان بزودی حل خواهد شد و شما به نیت خودتان خواهید رسید. بعد از تاریکی و غم، روشنایی در انتظار شماست. خودتان را برای کاری که می خواهید انجام دهید آماده سازید. با توکل به حق و راه و رسم دینداری به کام دلتان می رسید. راز خودتان را به کسی نگویید. ",
      "created_at": "2023-12-12T09:12:56.000000Z",
      "updated_at": "2023-12-12T09:12:56.000000Z",
      "first_stanza": "الا یا ایها الساقی ادر کاسا و ناولها"
    }
  ],
  "first_page_url": "https://api.hafezname.ir/api/poems?page=1",
  "from": 1,
  "last_page": 495,
  "last_page_url": "https://api.hafezname.ir/api/poems?page=495",
  "links": [
    { "url": null, "label": "&laquo; Previous", "active": false },
    {
      "url": "https://api.hafezname.ir/api/poems?page=1",
      "label": "1",
      "active": true
    },
    {
      "url": "https://api.hafezname.ir/api/poems?page=2",
      "label": "2",
      "active": false
    },
    {
      "url": "https://api.hafezname.ir/api/poems?page=3",
      "label": "3",
      "active": false
    },
    {
      "url": "https://api.hafezname.ir/api/poems?page=4",
      "label": "4",
      "active": false
    },
    {
      "url": "https://api.hafezname.ir/api/poems?page=5",
      "label": "5",
      "active": false
    },
    {
      "url": "https://api.hafezname.ir/api/poems?page=6",
      "label": "6",
      "active": false
    },
    {
      "url": "https://api.hafezname.ir/api/poems?page=7",
      "label": "7",
      "active": false
    },
    {
      "url": "https://api.hafezname.ir/api/poems?page=8",
      "label": "8",
      "active": false
    },
    {
      "url": "https://api.hafezname.ir/api/poems?page=9",
      "label": "9",
      "active": false
    },
    {
      "url": "https://api.hafezname.ir/api/poems?page=10",
      "label": "10",
      "active": false
    },
    { "url": null, "label": "...", "active": false },
    {
      "url": "https://api.hafezname.ir/api/poems?page=494",
      "label": "494",
      "active": false
    },
    {
      "url": "https://api.hafezname.ir/api/poems?page=495",
      "label": "495",
      "active": false
    },
    {
      "url": "https://api.hafezname.ir/api/poems?page=2",
      "label": "Next &raquo;",
      "active": false
    }
  ],
  "next_page_url": "https://api.hafezname.ir/api/poems?page=2",
  "path": "https://api.hafezname.ir/api/poems",
  "per_page": 1,
  "prev_page_url": null,
  "to": 1,
  "total": 495
}
